…
</div><br></div>

## Test

<div class=decocode><div style='background-color:inherit'><span style='font-size:100%;color:#4C78DB'><svg aria-hidden="true" role="img" viewBox="0 0 581 512" style="height:1em;width:1.13em;vertical-align:-0.125em;margin-left:auto;margin-right:auto;font-size:inherit;fill:#4C78DB;overflow:visible;position:relative;"><path d="M581 226.6C581 119.1 450.9 32 290.5 32S0 119.1 0 226.6C0 322.4 103.3 402 239.4 418.1V480h99.1v-61.5c24.3-2.7 47.6-7.4 69.4-13.9L448 480h112l-67.4-113.7c54.5-35.4 88.4-84.9 88.4-139.7zm-466.8 14.5c0-73.5 98.9-133 220.8-133s211.9 40.7 211.9 133c0 50.1-26.5 85-70.3 106.4-2.4-1.6-4.7-2.9-6.4-3.7-10.2-5.2-27.8-10.5-27.8-10.5s86.6-6.4 86.6-92.7-90.6-87.9-90.6-87.9h-199V361c-74.1-21.5-125.2-67.1-125.2-119.9zm225.1 38.3v-55.6c57.8 0 87.8-6.8 87.8 27.3 0 36.5-38.2 28.3-87.8 28.3zm-.9 72.5H365c10.8 0 18.9 11.7 24 19.2-16.1 1.9-33 2.8-50.6 2.9v-22.1z"/></svg><b> R</b></span>

```r
# For each player, find the two years with most hits
dplyr::filter(players, min_rank(desc(H)) <= 2 & H > 0)
## # A tibble: 2,917 × 7
## # Groups:   playerID [1,385]
##    playerID  yearID teamID     G    AB     R     H
##    <chr>      <int> <fct>  <int> <int> <int> <int>
##  1 aaronha01   1959 ML1      154   629   116   223
##  2 aaronha01   1963 ML1      161   631   121   201
##  3 abbotji01   1999 MIL       20    21     0     2
##  4 abernte02   1955 WS1       40    26     1     4
##  5 abernte02   1957 WS1       26    24     3     4
##  6 abreubo01   1999 PHI      152   546   118   183
##  7 abreubo01   2000 PHI      154   576   103   182
##  8 abreujo02   2016 CHA      159   624    67   183
##  9 abreujo02   2017 CHA      156   621    95   189
## 10 acunaro01   2018 ATL      111   433    78   127
## # … with 2,907 more rows
## # ℹ Use `print(n = ...)` to see more rows


# Within each player, rank each year by the number of games played
dplyr::mutate(players, G_rank = min_rank(G))
## # A tibble: 20,706 × 8
## # Groups:   playerID [1,436]
##    playerID  yearID teamID     G    AB     R     H G_rank
##    <chr>      <int> <fct>  <int> <int> <int> <int>  <int>
##  1 aaronha01   1954 ML1      122   468    58   131      4
##  2 aaronha01   1955 ML1      153   602   105   189     13
##  3 aaronha01   1956 ML1      153   609   106   200     13
##  4 aaronha01   1957 ML1      151   615   118   198     12
##  5 aaronha01   1958 ML1      153   601   109   196     13
##  6 aaronha01   1959 ML1      154   629   116   223     17
##  7 aaronha01   1960 ML1      153   590   102   172     13
##  8 aaronha01   1961 ML1      155   603   115   197     18
##  9 aaronha01   1962 ML1      156   592   127   191     20
## 10 aaronha01   1963 ML1      161   631   121   201     23
## # … with 20,696 more rows
## # ℹ Use `print(n = ...)` to see more rows
```
…
