Chapter 7 Window Functions | PYxR
…
7.4 Test

 R

# For each player, find the two years with most hits
dplyr::filter(players, min_rank(desc(H)) <= 2 & H > 0)
## # A tibble: 2,917 × 7
## # Groups:   playerID [1,385]
##    playerID  yearID teamID     G    AB     R     H
##    <chr>      <int> <fct>  <int> <int> <int> <int>
##  1 aaronha01   1959 ML1      154   629   116   223
##  2 aaronha01   1963 ML1      161   631   121   201
##  3 abbotji01   1999 MIL       20    21     0     2
##  4 abernte02   1955 WS1       40    26     1     4
##  5 abernte02   1957 WS1       26    24     3     4
##  6 abreubo01   1999 PHI      152   546   118   183
##  7 abreubo01   2000 PHI      154   576   103   182
##  8 abreujo02   2016 CHA      159   624    67   183
##  9 abreujo02   2017 CHA      156   621    95   189
## 10 acunaro01   2018 ATL      111   433    78   127
## # … with 2,907 more rows

# Within each player, rank each year by the number of games played
dplyr::mutate(players, G_rank = min_rank(G))
## # A tibble: 20,706 × 8
## # Groups:   playerID [1,436]
##    playerID  yearID teamID     G    AB     R     H G_rank
##    <chr>      <int> <fct>  <int> <int> <int> <int>  <int>
##  1 aaronha01   1954 ML1      122   468    58   131      4
##  2 aaronha01   1955 ML1      153   602   105   189     13
##  3 aaronha01   1956 ML1      153   609   106   200     13
##  4 aaronha01   1957 ML1      151   615   118   198     12
##  5 aaronha01   1958 ML1      153   601   109   196     13
##  6 aaronha01   1959 ML1      154   629   116   223     17
##  7 aaronha01   1960 ML1      153   590   102   172     13
##  8 aaronha01   1961 ML1      155   603   115   197     18
##  9 aaronha01   1962 ML1      156   592   127   191     20
## 10 aaronha01   1963 ML1      161   631   121   201     23
## # … with 20,696 more rows
…
